<svg width="96" height="96" xmlns="http://www.w3.org/2000/svg">
 <g>
  <title>Resize Icon</title>
  <rect id="svg_07" height="16" width="16" y="80" x="00" stroke-width="0" stroke="#000" fill="#333333"/>
  <rect id="svg_22" height="16" width="16" y="64" x="16" stroke-width="0" stroke="#000" fill="#333333"/>
  <rect id="svg_23" height="16" width="16" y="48" x="32" stroke-width="0" stroke="#000" fill="#333333"/>
  <rect id="svg_24" height="16" width="16" y="32" x="48" stroke-width="0" stroke="#000" fill="#333333"/>
  <rect id="svg_25" height="16" width="16" y="16" x="64" stroke-width="0" stroke="#000" fill="#333333"/>
  <rect id="svg_26" height="16" width="16" y="00" x="80" stroke-width="0" stroke="#000" fill="#333333"/>
  <rect id="svg_27" height="16" width="16" y="76" x="44" stroke-width="0" stroke="#000" fill="#333333"/>
  <rect id="svg_28" height="16" width="16" y="60" x="60" stroke-width="0" stroke="#000" fill="#333333"/>
  <rect id="svg_29" height="16" width="16" y="44" x="76" stroke-width="0" stroke="#000" fill="#333333"/>
  <rect id="svg_30" height="16" width="16" y="80" x="80" stroke-width="0" stroke="#000" fill="#333333"/>
 </g>
</svg>