<?xml version="1.0" encoding="UTF-8"?>
<svg version="1.1" id="Print" xmlns="http://www.w3.org/2000/svg" xmlns:xlink="http://www.w3.org/1999/xlink" x="0px" y="0px" viewBox="0 0 30 30" enable-background="new 0 0 30 30" xml:space="preserve" class="article-toolbar-icon">
<g>
	<g>
		<path d="M24.5,9.9h-19V0h13.7l5.4,5.3V9.9z M7,8.4h16V5.9l-4.5-4.4H7V8.4z"/>
	</g>
	<g>
		<path d="M20.6,23.1H9.3c-0.4,0-0.8-0.3-0.8-0.8s0.3-0.8,0.8-0.8h11.2c0.4,0,0.8,0.3,0.8,0.8S21,23.1,20.6,23.1z"/>
	</g>
	<g>
		<path d="M20.6,26.6H9.3c-0.4,0-0.8-0.3-0.8-0.8s0.3-0.8,0.8-0.8h11.2c0.4,0,0.8,0.3,0.8,0.8S21,26.6,20.6,26.6z"/>
	</g>
	<g>
		<polygon points="23.1,6.8 17.7,6.8 17.7,1.3 19.2,1.3 19.2,5.3 23.1,5.3   "/>
	</g>
	<g>
		<path d="M19.2,14.6H6.2c-0.4,0-0.8-0.3-0.8-0.8s0.3-0.8,0.8-0.8h12.9c0.4,0,0.8,0.3,0.8,0.8S19.6,14.6,19.2,14.6z"/>
	</g>
	<path d="M28.4,8.4H1.6C0.7,8.4,0,9.1,0,10v11.5c0,0.9,0.7,1.6,1.6,1.6h3.8V30h19v-6.8h3.9c0.9,0,1.6-0.7,1.6-1.6V10   C30,9.1,29.3,8.4,28.4,8.4z M23,28.5h-16v-8.8h16V28.5z M28.5,21.5c0,0.1-0.1,0.1-0.1,0.1h-3.9v-3.5h-19v3.5H1.6   c-0.1,0-0.1-0.1-0.1-0.1V10c0-0.1,0.1-0.1,0.1-0.1h26.7c0.1,0,0.1,0.1,0.1,0.1V21.5z"/>
	<circle cx="23.8" cy="13.8" r="0.8"/>
	<circle cx="21.6" cy="13.8" r="0.8"/>
</g>
</svg>